…
```r
current_employee_cost_center <- df %>% group_by(cost_center_current)
current_employee_cost_center <- current_employee_cost_center %>% summarise(
  count = length(current_base_pay)
)
suppress_count(current_employee_cost_center)
```

```
## # A tibble: 50 x 2
##    cost_center_current                            count
##    <chr>                                          <int>
##  1 112300 Local Politics and Government              70
##  2 113200 National Politics and Government           63
##  3 110652 News Video - General                       50
##  4 110015 Sports Main                                48
##  5 110601 Multiplatform Desk                         42
##  6 110300 Style                                      39
##  7 119065 Dispatch Operations (Night Circulation)    39
##  8 113210 Economy and Business                       38
##  9 115000 Editorial Administration                   38
## 10 110605 Presentation                               24
## # … with 40 more rows
```
…
```r
current_employee_cost_center_salary <- filter(df, pay_rate_type == 'Salaried') %>% group_by(cost_center_current)
current_employee_cost_center_salary <- current_employee_cost_center_salary %>% summarise(
  count = length(current_base_pay),
  median = median(current_base_pay, na.rm = FALSE)
)
suppress_median(current_employee_cost_center_salary)
```

```
## # A tibble: 35 x 3
##    cost_center_current                     count  median
##    <chr>                                   <int>   <dbl>
##  1 113205 National Security                   17 172780 
##  2 117682 Global Sales                        21 164984.
##  3 113200 National Politics and Government    55 145980 
##  4 113235 National America                    12 137124.
##  5 113215 News National Health & Science      12 135595.
##  6 113210 Economy and Business                38 133510.
##  7 110450 Investigative                       13 129780 
##  8 117600 Leadership Executive                 5 127500 
##  9 113240 News National Environment            5 126080 
## 10 110300 Style                               36 115178.
## # … with 25 more rows
```
…
```r
current_employee_yos_race <- df %>% group_by(years_of_service_grouped, race_ethnicity)
current_employee_yos_race <- current_employee_yos_race %>% summarise(
  count = length(current_base_pay)
)
suppress(current_employee_yos_race)
```

```
## # A tibble: 31 x 3
## # Groups:   years_of_service_grouped [8]
##    years_of_service_group… race_ethnicity                             count
##    <fct>                   <chr>                                      <int>
##  1 0                       Asian (United States of America)              15
##  2 0                       Black or African American (United States …    20
##  3 0                       Hispanic or Latino (United States of Amer…    10
##  4 0                       Prefer Not to Disclose (United States of …     8
##  5 0                       Two or More Races (United States of Ameri…     6
##  6 0                       White (United States of America)              77
##  7 1-2                     Asian (United States of America)              20
##  8 1-2                     Black or African American (United States …    30
##  9 1-2                     Hispanic or Latino (United States of Amer…    12
## 10 1-2                     Two or More Races (United States of Ameri…     6
## # … with 21 more rows
```

```r
current_employee_yos_race_salary <- filter(df, pay_rate_type == 'Salaried') %>% group_by(years_of_service_grouped, race_ethnicity)
current_employee_yos_race_salary <- current_employee_yos_race_salary %>% summarise(
  count = length(current_base_pay),
  median = median(current_base_pay, na.rm = FALSE)
)
suppress(current_employee_yos_race_salary)
```

```
## # A tibble: 25 x 4
## # Groups:   years_of_service_grouped [8]
##    years_of_service_gro… race_ethnicity                        count median
##    <fct>                 <chr>                                 <int>  <dbl>
##  1 0                     Asian (United States of America)         11  77000
##  2 0                     Black or African American (United St…     5  87000
##  3 0                     Hispanic or Latino (United States of…     5  75000
##  4 0                     White (United States of America)         65  90000
##  5 1-2                   Asian (United States of America)         16  87780
##  6 1-2                   Black or African American (United St…    12  89780
##  7 1-2                   Hispanic or Latino (United States of…     7  82000
##  8 1-2                   Two or More Races (United States of …     5  68000
##  9 1-2                   White (United States of America)        115  92780
## 10 1-2                   <NA>                                      5 140280
## # … with 15 more rows
```
…
```r
reason_for_change_gender <- reason_for_change_combined %>% group_by(business_process_reason, gender)
reason_for_change_gender <- reason_for_change_gender %>% summarise(
  count = length(business_process_reason)
)
suppress_count(reason_for_change_gender)
```

```
## # A tibble: 34 x 3
## # Groups:   business_process_reason [19]
##    business_process_reason                                     gender count
##    <chr>                                                       <chr>  <int>
##  1 <NA>                                                        Female  9012
##  2 <NA>                                                        Male    7798
##  3 Request Compensation Change > Adjustment > Contract Increa… Female  1284
##  4 Request Compensation Change > Adjustment > Contract Increa… Male    1167
##  5 Merit > Performance > Annual Performance Appraisal          Female   878
##  6 Merit > Performance > Annual Performance Appraisal          Male     851
##  7 Data Change > Data Change > Change Job Details              Female   367
##  8 Data Change > Data Change > Change Job Details              Male     306
##  9 Transfer > Transfer > Move to another Manager               Male     299
## 10 Request Compensation Change > Adjustment > Change Plan Ass… Female   288
## # … with 24 more rows
```

```r
reason_for_change_race <- reason_for_change_combined %>% group_by(business_process_reason, race_ethnicity)
reason_for_change_race <- reason_for_change_race %>% summarise(
  count = length(business_process_reason)
)
suppress_count(reason_for_change_race)
```

```
## # A tibble: 83 x 3
## # Groups:   business_process_reason [18]
##    business_process_reason             race_ethnicity                 count
##    <chr>                               <chr>                          <int>
##  1 <NA>                                White (United States of Ameri… 10227
##  2 <NA>                                Black or African American (Un…  3507
##  3 Request Compensation Change > Adju… White (United States of Ameri…  1556
##  4 <NA>                                Asian (United States of Ameri…  1366
##  5 Merit > Performance > Annual Perfo… White (United States of Ameri…  1109
##  6 <NA>                                Hispanic or Latino (United St…   756
##  7 Request Compensation Change > Adju… Black or African American (Un…   508
##  8 Data Change > Data Change > Change… White (United States of Ameri…   432
##  9 <NA>                                Two or More Races (United Sta…   382
## 10 Merit > Performance > Annual Perfo… Black or African American (Un…   347
## # … with 73 more rows
```

```r
reason_for_change_race_gender <- reason_for_change_combined %>% group_by(business_process_reason, race_ethnicity, gender)
reason_for_change_race_gender <- reason_for_change_race_gender %>% summarise(
  count = length(business_process_reason)
)
suppress_count(reason_for_change_race_gender)
```

```
## # A tibble: 122 x 4
## # Groups:   business_process_reason, race_ethnicity [70]
##    business_process_reason          race_ethnicity             gender count
##    <chr>                            <chr>                      <chr>  <int>
##  1 <NA>                             White (United States of A… Female  5391
##  2 <NA>                             White (United States of A… Male    4836
##  3 <NA>                             Black or African American… Male    1827
##  4 <NA>                             Black or African American… Female  1680
##  5 <NA>                             Asian (United States of A… Female  1022
##  6 Request Compensation Change > A… White (United States of A… Female   794
##  7 Request Compensation Change > A… White (United States of A… Male     762
##  8 Merit > Performance > Annual Pe… White (United States of A… Male     564
##  9 Merit > Performance > Annual Pe… White (United States of A… Female   545
## 10 <NA>                             Hispanic or Latino (Unite… Female   414
## # … with 112 more rows
```
…
```r
current_news_race_age_5_salary <- news_salaried %>% group_by(age_group_5, race_ethnicity)
current_news_race_age_5_salary <- current_news_race_age_5_salary %>% summarise(
  count = length(current_base_pay),
  median = median(current_base_pay, na.rm = FALSE)
)
suppress(current_news_race_age_5_salary)
```

```
## # A tibble: 25 x 4
## # Groups:   age_group_5 [10]
##    age_group_5 race_ethnicity                                  count median
##    <fct>       <chr>                                           <int>  <dbl>
##  1 <25         Asian (United States of America)                    5 65780 
##  2 <25         White (United States of America)                   12 65140 
##  3 25-29       Asian (United States of America)                   11 77000 
##  4 25-29       Black or African American (United States of Am…     6 81000 
##  5 25-29       Two or More Races (United States of America)        6 75690 
##  6 25-29       White (United States of America)                   59 81757.
##  7 30-34       Asian (United States of America)                   10 95780 
##  8 30-34       Black or African American (United States of Am…     9 88133.
##  9 30-34       Hispanic or Latino (United States of America)       6 80596.
## 10 30-34       White (United States of America)                   66 92640 
## # … with 15 more rows
```
…
```r
current_news_race_age_10_salary <- news_salaried %>% group_by(age_group_10, race_ethnicity)
current_news_race_age_10_salary <- current_news_race_age_10_salary %>% summarise(
  count = length(current_base_pay),
  median = median(current_base_pay, na.rm = FALSE)
)
suppress(current_news_race_age_10_salary)
```

```
## # A tibble: 21 x 4
## # Groups:   age_group_10 [6]
##    age_group_10 race_ethnicity                                 count median
##    <fct>        <chr>                                          <int>  <dbl>
##  1 <25          Asian (United States of America)                   5 6.58e4
##  2 <25          White (United States of America)                  12 6.51e4
##  3 25-34        Asian (United States of America)                  21 8.60e4
##  4 25-34        Black or African American (United States of A…    15 8.70e4
##  5 25-34        Hispanic or Latino (United States of America)     10 8.12e4
##  6 25-34        Prefer Not to Disclose (United States of Amer…     5 7.85e4
##  7 25-34        Two or More Races (United States of America)       9 7.64e4
##  8 25-34        White (United States of America)                 125 8.60e4
##  9 25-34        <NA>                                               9 1.16e5
## 10 35-44        Asian (United States of America)                  11 1.08e5
## # … with 11 more rows
```
…
```r
current_news_race_group_age_5_salary <- news_salaried %>% group_by(age_group_5, race_grouping)
current_news_race_group_age_5_salary <- current_news_race_group_age_5_salary %>% summarise(
  count = length(current_base_pay),
  median = median(current_base_pay, na.rm = FALSE)
)
suppress(current_news_race_group_age_5_salary)
```

```
## # A tibble: 21 x 4
## # Groups:   age_group_5 [10]
##    age_group_5 race_grouping   count  median
##    <fct>       <chr>           <int>   <dbl>
##  1 <25         person of color    11  63780 
##  2 <25         white              12  65140 
##  3 25-29       person of color    27  80000 
##  4 25-29       unknown             5  88280 
##  5 25-29       white              59  81757.
##  6 30-34       person of color    28  86983.
##  7 30-34       unknown             9 108000 
##  8 30-34       white              66  92640 
##  9 35-39       person of color    23  99238.
## 10 35-39       white              61 105780 
## # … with 11 more rows
```
…
```r
current_news_yos_race_salaried <- news_salaried %>% group_by(years_of_service_grouped, race_ethnicity)
current_news_yos_race_salaried <- current_news_yos_race_salaried %>% summarise(
  count = length(current_base_pay),
  median = median(current_base_pay, na.rm = FALSE)
)
suppress(current_news_yos_race_salaried)
```

```
## # A tibble: 21 x 4
## # Groups:   years_of_service_grouped [8]
##    years_of_service_gro… race_ethnicity                        count median
##    <fct>                 <chr>                                 <int>  <dbl>
##  1 0                     Asian (United States of America)          7 7.70e4
##  2 0                     White (United States of America)         42 1.00e5
##  3 1-2                   Asian (United States of America)         13 8.48e4
##  4 1-2                   Black or African American (United St…    10 8.98e4
##  5 1-2                   Hispanic or Latino (United States of…     6 8.29e4
##  6 1-2                   Two or More Races (United States of …     5 6.80e4
##  7 1-2                   White (United States of America)         85 9.58e4
##  8 1-2                   <NA>                                      5 1.40e5
##  9 3-5                   Asian (United States of America)         12 9.36e4
## 10 3-5                   Black or African American (United St…    12 9.73e4
## # … with 11 more rows
```
…
```r
current_news_yos_race_gender_salaried <- news_salaried %>% group_by(years_of_service_grouped, race_ethnicity, gender)
current_news_yos_race_gender_salaried <- current_news_yos_race_gender_salaried %>% summarise(
  count = length(current_base_pay),
  median = median(current_base_pay, na.rm = FALSE)
)
suppress(current_news_yos_race_gender_salaried)
```

```
## # A tibble: 26 x 5
## # Groups:   years_of_service_grouped, race_ethnicity [16]
##    years_of_service_gr… race_ethnicity                  gender count median
##    <fct>                <chr>                           <chr>  <int>  <dbl>
##  1 0                    Asian (United States of Americ… Female     7 7.70e4
##  2 0                    White (United States of Americ… Female    25 8.50e4
##  3 0                    White (United States of Americ… Male      17 1.10e5
##  4 1-2                  Asian (United States of Americ… Female    11 7.70e4
##  5 1-2                  Black or African American (Uni… Female     6 8.58e4
##  6 1-2                  Hispanic or Latino (United Sta… Female     5 8.20e4
##  7 1-2                  White (United States of Americ… Female    41 9.08e4
##  8 1-2                  White (United States of Americ… Male      44 9.98e4
##  9 3-5                  Asian (United States of Americ… Female     8 9.36e4
## 10 3-5                  Black or African American (Uni… Female     7 9.61e4
## # … with 16 more rows
```
…
```r
current_news_age_5_yos_salary <- news_salaried %>% group_by(age_group_5, years_of_service_grouped)
current_news_age_5_yos_salary <- current_news_age_5_yos_salary %>% summarise(
  count = length(current_base_pay),
  median = median(current_base_pay, na.rm = FALSE)
)
suppress(current_news_age_5_yos_salary)
```

```
## # A tibble: 39 x 4
## # Groups:   age_group_5 [9]
##    age_group_5 years_of_service_grouped count  median
##    <fct>       <fct>                    <int>   <dbl>
##  1 <25         0                            9  66000 
##  2 <25         1-2                         13  63780 
##  3 25-29       0                           19  82000 
##  4 25-29       1-2                         30  78500 
##  5 25-29       3-5                         41  81757.
##  6 30-34       0                           13  87000 
##  7 30-34       1-2                         28  93528.
##  8 30-34       3-5                         43  88780 
##  9 30-34       6-10                        15  82312.
## 10 35-39       0                            9 110000 
## # … with 29 more rows
```
…
```r
current_news_age_10_yos_salary <- news_salaried %>% group_by(age_group_10, years_of_service_grouped)
current_news_age_10_yos_salary <- current_news_age_10_yos_salary %>% summarise(
  count = length(current_base_pay),
  median = median(current_base_pay, na.rm = FALSE)
)
suppress(current_news_age_10_yos_salary)
```

```
## # A tibble: 26 x 4
## # Groups:   age_group_10 [5]
##    age_group_10 years_of_service_grouped count  median
##    <fct>        <fct>                    <int>   <dbl>
##  1 <25          0                            9  66000 
##  2 <25          1-2                         13  63780 
##  3 25-34        0                           32  85000 
##  4 25-34        1-2                         58  86280 
##  5 25-34        3-5                         84  85890 
##  6 25-34        6-10                        16  94676.
##  7 35-44        0                           16 125000 
##  8 35-44        1-2                         36 116530 
##  9 35-44        3-5                         38 110935.
## 10 35-44        6-10                        25 115237.
## # … with 16 more rows
```
…
```r
current_median_news_age_5_race_salaried <- news_salaried %>% group_by(age_group_5, race_ethnicity)
current_median_news_age_5_race_salaried <- current_median_news_age_5_race_salaried %>% summarise(
  count = length(current_base_pay),
  median = median(current_base_pay, na.rm = FALSE)
)
suppress(current_median_news_age_5_race_salaried)
```

```
## # A tibble: 25 x 4
## # Groups:   age_group_5 [10]
##    age_group_5 race_ethnicity                                  count median
##    <fct>       <chr>                                           <int>  <dbl>
##  1 <25         Asian (United States of America)                    5 65780 
##  2 <25         White (United States of America)                   12 65140 
##  3 25-29       Asian (United States of America)                   11 77000 
##  4 25-29       Black or African American (United States of Am…     6 81000 
##  5 25-29       Two or More Races (United States of America)        6 75690 
##  6 25-29       White (United States of America)                   59 81757.
##  7 30-34       Asian (United States of America)                   10 95780 
##  8 30-34       Black or African American (United States of Am…     9 88133.
##  9 30-34       Hispanic or Latino (United States of America)       6 80596.
## 10 30-34       White (United States of America)                   66 92640 
## # … with 15 more rows
```
…
